# --> Including file '/build1/leggett/git/leggett/Gaudi/GaudiExamples/options/GaudiCommonTests.opts'
# --> Including file '/build1/leggett/git/leggett/Gaudi/GaudiExamples/options/Common.opts'
# --> Including file '/build1/leggett/git/leggett/Gaudi/GaudiExamples/options/Services.opts'
# AuditorSvc.Auditors = { "ChronoAuditor" };
# <-- End of file '/build1/leggett/git/leggett/Gaudi/GaudiExamples/options/Services.opts'
# ApplicationMgr.StatusCodeCheck = true;
# <-- End of file '/build1/leggett/git/leggett/Gaudi/GaudiExamples/options/Common.opts'
# EventDataSvc.ForceLeaves = true;
# EventDataSvc.RootCLID    =    1;
# MessageSvc.OutputLevel     =  3;
# ApplicationMgr.TopAlg += { "GaudiCommonTests/Test1" };
# Test1.OutputLevel     =  2;
# Test1.RootInTES = "";
# ApplicationMgr.TopAlg += { "GaudiCommonTests/Test2" };
# Test2.OutputLevel     =  2;
# Test2.RootInTES = "microDST/";
# ApplicationMgr.EvtMax    = 1;
# ApplicationMgr.EvtSel   = "NONE";
# ApplicationMgr.HistogramPersistency = "NONE";
# <-- End of file '/build1/leggett/git/leggett/Gaudi/GaudiExamples/options/GaudiCommonTests.opts'
# --> Including file '/tmp/leggett/tmpU6xINU.py'
# <-- End of file '/tmp/leggett/tmpU6xINU.py'
ApplicationMgr    SUCCESS
====================================================================================================================================
                                                   Welcome to ApplicationMgr (GaudiCoreSvc v28r1)
                                          running on p05614910w96644.cern.ch on Wed Jan 18 01:44:05 2017
====================================================================================================================================
ApplicationMgr       INFO Application Manager Configured successfully
StatusCodeSvc        INFO initialize
Test1               DEBUG Property update for OutputLevel : new value = 2
Test1               DEBUG Initialize base class GaudiCommon<Algorithm>
Test1               DEBUG could not locate CounterSummarySvc, no counter summary will be made
Test1               DEBUG List of ALL properties of GaudiCommonTests/Test1  #properties = 35
Test1               DEBUG Property ['Name': Value] =  'RequireObjects':[  ]
Test1               DEBUG Property ['Name': Value] =  'VetoObjects':[  ]
Test1               DEBUG Property ['Name': Value] =  'StatEntityList':[  ]
Test1               DEBUG Property ['Name': Value] =  'CounterList':[ '.*' ]
Test1               DEBUG Property ['Name': Value] =  'UseEfficiencyRowFormat':True
Test1               DEBUG Property ['Name': Value] =  'EfficiencyRowFormat': |*%|-48.48s|%|50t||%|10d| |%|11.5g| |(%|#9.6g| +- %|-#9.6g|)%%|   -------   |   -------   |
Test1               DEBUG Property ['Name': Value] =  'RegularRowFormat': | %|-48.48s|%|50t||%|10d| |%|11.7g| |%|#11.5g| |%|#11.5g| |%|#12.5g| |%|#12.5g| |
Test1               DEBUG Property ['Name': Value] =  'StatTableHeader': |    Counter                                      |     #     |    sum     | mean/eff^* | rms/err^*  |     min     |     max     |
Test1               DEBUG Property ['Name': Value] =  'RootInTES':
Test1               DEBUG Property ['Name': Value] =  'Context':
Test1               DEBUG Property ['Name': Value] =  'TypePrint':True
Test1               DEBUG Property ['Name': Value] =  'PrintEmptyCounters':False
Test1               DEBUG Property ['Name': Value] =  'StatPrint':True
Test1               DEBUG Property ['Name': Value] =  'PropertiesPrint':False
Test1               DEBUG Property ['Name': Value] =  'ErrorsPrint':True
Test1               DEBUG Property ['Name': Value] =  'IsIOBound':False
Test1               DEBUG Property ['Name': Value] =  'NeededResources':[  ]
Test1               DEBUG Property ['Name': Value] =  'Cardinality':1
Test1               DEBUG Property ['Name': Value] =  'RegisterForContextService':True
Test1               DEBUG Property ['Name': Value] =  'MonitorService':MonitorSvc
Test1               DEBUG Property ['Name': Value] =  'Timeline':False
Test1               DEBUG Property ['Name': Value] =  'AuditStop':False
Test1               DEBUG Property ['Name': Value] =  'AuditStart':False
Test1               DEBUG Property ['Name': Value] =  'AuditEndRun':False
Test1               DEBUG Property ['Name': Value] =  'AuditBeginRun':False
Test1               DEBUG Property ['Name': Value] =  'AuditFinalize':False
Test1               DEBUG Property ['Name': Value] =  'AuditExecute':False
Test1               DEBUG Property ['Name': Value] =  'AuditRestart':False
Test1               DEBUG Property ['Name': Value] =  'AuditReinitialize':False
Test1               DEBUG Property ['Name': Value] =  'AuditInitialize':False
Test1               DEBUG Property ['Name': Value] =  'AuditAlgorithms':False
Test1               DEBUG Property ['Name': Value] =  'ErrorMax':1
Test1               DEBUG Property ['Name': Value] =  'Enable':True
Test1               DEBUG Property ['Name': Value] =  'OutputLevel':2
Test1               DEBUG Property ['Name': Value] =  'ExtraOutputs':[]
Test1               DEBUG Property ['Name': Value] =  'ExtraInputs':[]
Test1               DEBUG input handles: 0
Test1               DEBUG output handles: 0
Test1               DEBUG Data Deps for Test1
Test2               DEBUG Property update for OutputLevel : new value = 2
Test2               DEBUG Initialize base class GaudiCommon<Algorithm>
Test2               DEBUG could not locate CounterSummarySvc, no counter summary will be made
Test2               DEBUG List of ALL properties of GaudiCommonTests/Test2  #properties = 35
Test2               DEBUG Property ['Name': Value] =  'RequireObjects':[  ]
Test2               DEBUG Property ['Name': Value] =  'VetoObjects':[  ]
Test2               DEBUG Property ['Name': Value] =  'StatEntityList':[  ]
Test2               DEBUG Property ['Name': Value] =  'CounterList':[ '.*' ]
Test2               DEBUG Property ['Name': Value] =  'UseEfficiencyRowFormat':True
Test2               DEBUG Property ['Name': Value] =  'EfficiencyRowFormat': |*%|-48.48s|%|50t||%|10d| |%|11.5g| |(%|#9.6g| +- %|-#9.6g|)%%|   -------   |   -------   |
Test2               DEBUG Property ['Name': Value] =  'RegularRowFormat': | %|-48.48s|%|50t||%|10d| |%|11.7g| |%|#11.5g| |%|#11.5g| |%|#12.5g| |%|#12.5g| |
Test2               DEBUG Property ['Name': Value] =  'StatTableHeader': |    Counter                                      |     #     |    sum     | mean/eff^* | rms/err^*  |     min     |     max     |
Test2               DEBUG Property ['Name': Value] =  'RootInTES':microDST/
Test2               DEBUG Property ['Name': Value] =  'Context':
Test2               DEBUG Property ['Name': Value] =  'TypePrint':True
Test2               DEBUG Property ['Name': Value] =  'PrintEmptyCounters':False
Test2               DEBUG Property ['Name': Value] =  'StatPrint':True
Test2               DEBUG Property ['Name': Value] =  'PropertiesPrint':False
Test2               DEBUG Property ['Name': Value] =  'ErrorsPrint':True
Test2               DEBUG Property ['Name': Value] =  'IsIOBound':False
Test2               DEBUG Property ['Name': Value] =  'NeededResources':[  ]
Test2               DEBUG Property ['Name': Value] =  'Cardinality':1
Test2               DEBUG Property ['Name': Value] =  'RegisterForContextService':True
Test2               DEBUG Property ['Name': Value] =  'MonitorService':MonitorSvc
Test2               DEBUG Property ['Name': Value] =  'Timeline':False
Test2               DEBUG Property ['Name': Value] =  'AuditStop':False
Test2               DEBUG Property ['Name': Value] =  'AuditStart':False
Test2               DEBUG Property ['Name': Value] =  'AuditEndRun':False
Test2               DEBUG Property ['Name': Value] =  'AuditBeginRun':False
Test2               DEBUG Property ['Name': Value] =  'AuditFinalize':False
Test2               DEBUG Property ['Name': Value] =  'AuditExecute':False
Test2               DEBUG Property ['Name': Value] =  'AuditRestart':False
Test2               DEBUG Property ['Name': Value] =  'AuditReinitialize':False
Test2               DEBUG Property ['Name': Value] =  'AuditInitialize':False
Test2               DEBUG Property ['Name': Value] =  'AuditAlgorithms':False
Test2               DEBUG Property ['Name': Value] =  'ErrorMax':1
Test2               DEBUG Property ['Name': Value] =  'Enable':True
Test2               DEBUG Property ['Name': Value] =  'OutputLevel':2
Test2               DEBUG Property ['Name': Value] =  'ExtraOutputs':[]
Test2               DEBUG Property ['Name': Value] =  'ExtraInputs':[]
Test2               DEBUG input handles: 0
Test2               DEBUG output handles: 0
Test2               DEBUG Data Deps for Test2
EventLoopMgr      WARNING Unable to locate service "EventSelector"
EventLoopMgr      WARNING No events will be processed from external input.
HistogramPersis...WARNING Histograms saving not required.
ApplicationMgr       INFO Application Manager Initialized successfully
ApplicationMgr       INFO Application Manager Started successfully
Test1                INFO Execute
Test1               DEBUG GaudiCommonTests:: The object of type 'KeyedContainer<Gaudi::Examples::MyTrack,Containers::KeyedObjectManager<Containers::hashmap> >' is registered in TS at address '/Event/Test1/Tracks1'
Test1               DEBUG GaudiCommonTests:: The object of type 'KeyedContainer<Gaudi::Examples::MyTrack,Containers::KeyedObjectManager<Containers::hashmap> >' is registered in TS at address '/Event/Test1/Tracks2'
Test1               DEBUG GaudiCommonTests:: The object of type 'KeyedContainer<Gaudi::Examples::MyTrack,Containers::KeyedObjectManager<Containers::hashmap> >' is registered in TS at address 'Test1/Tracks3'
Test1               DEBUG GaudiCommonTests:: The object of type 'KeyedContainer<Gaudi::Examples::MyTrack,Containers::KeyedObjectManager<Containers::hashmap> >' is registered in TS at address 'Test1/Tracks4'
Test1               DEBUG The object of type 'KeyedContainer<Gaudi::Examples::MyTrack,Containers::KeyedObjectManager<Containers::hashmap> >*' has been retrieved from TS at address '/Event/Test1/Tracks1'
Test1               DEBUG The object of type 'KeyedContainer<Gaudi::Examples::MyTrack,Containers::KeyedObjectManager<Containers::hashmap> >*' has been retrieved from TS at address '/Event/Test1/Tracks2'
Test1               DEBUG The object of type 'KeyedContainer<Gaudi::Examples::MyTrack,Containers::KeyedObjectManager<Containers::hashmap> >*' has been retrieved from TS at address 'Test1/Tracks3'
Test1               DEBUG The object of type 'KeyedContainer<Gaudi::Examples::MyTrack,Containers::KeyedObjectManager<Containers::hashmap> >*' has been retrieved from TS at address 'Test1/Tracks4'
Test1               DEBUG The object of type 'DataObject*' has been retrieved from TS at address '/Event'
Test1               DEBUG The object of type 'DataObject*' has been retrieved from TS at address '/Event'
Test1               DEBUG The object of type 'DataObject*' has been retrieved from TS at address ''
Test1               DEBUG The object of type 'DataObject*' has been retrieved from TS at address ''
Test1                INFO Loaded Objects:
Test1                INFO /Event/Test1/Tracks1
Test1                INFO /Event/Test1/Tracks2
Test1                INFO /Event/Test1/Tracks3
Test1                INFO /Event/Test1/Tracks4
Test1                INFO /Event
Test1                INFO /Event
Test1                INFO /Event
Test1                INFO /Event
Test1               DEBUG The object of type 'KeyedContainer<Gaudi::Examples::MyTrack,Containers::KeyedObjectManager<Containers::hashmap> >*' has been retrieved from TS at address '/Event/Test1/Tracks1'
Test1               DEBUG The object of type 'KeyedContainer<Gaudi::Examples::MyTrack,Containers::KeyedObjectManager<Containers::hashmap> >*' could not be retrieved from TS at address 'Nowhere/To/Be/Found'
Test2                INFO Execute
Test2               DEBUG GaudiCommonTests:: The object of type 'KeyedContainer<Gaudi::Examples::MyTrack,Containers::KeyedObjectManager<Containers::hashmap> >' is registered in TS at address 'microDST/Test2/Tracks1'
Test2               DEBUG GaudiCommonTests:: The object of type 'KeyedContainer<Gaudi::Examples::MyTrack,Containers::KeyedObjectManager<Containers::hashmap> >' is registered in TS at address '/Event/Test2/Tracks2'
Test2               DEBUG GaudiCommonTests:: The object of type 'KeyedContainer<Gaudi::Examples::MyTrack,Containers::KeyedObjectManager<Containers::hashmap> >' is registered in TS at address 'microDST/Test2/Tracks3'
Test2               DEBUG GaudiCommonTests:: The object of type 'KeyedContainer<Gaudi::Examples::MyTrack,Containers::KeyedObjectManager<Containers::hashmap> >' is registered in TS at address 'Test2/Tracks4'
Test2               DEBUG The object of type 'KeyedContainer<Gaudi::Examples::MyTrack,Containers::KeyedObjectManager<Containers::hashmap> >*' has been retrieved from TS at address 'microDST/Test2/Tracks1'
Test2               DEBUG The object of type 'KeyedContainer<Gaudi::Examples::MyTrack,Containers::KeyedObjectManager<Containers::hashmap> >*' has been retrieved from TS at address '/Event/Test2/Tracks2'
Test2               DEBUG The object of type 'KeyedContainer<Gaudi::Examples::MyTrack,Containers::KeyedObjectManager<Containers::hashmap> >*' has been retrieved from TS at address 'microDST/Test2/Tracks3'
Test2               DEBUG The object of type 'KeyedContainer<Gaudi::Examples::MyTrack,Containers::KeyedObjectManager<Containers::hashmap> >*' has been retrieved from TS at address 'Test2/Tracks4'
Test2               DEBUG The object of type 'DataObject*' has been retrieved from TS at address 'microDST'
Test2               DEBUG The object of type 'DataObject*' has been retrieved from TS at address '/Event'
Test2               DEBUG The object of type 'DataObject*' has been retrieved from TS at address 'microDST'
Test2               DEBUG The object of type 'DataObject*' has been retrieved from TS at address ''
Test2                INFO Loaded Objects:
Test2                INFO /Event/microDST/Test2/Tracks1
Test2                INFO /Event/Test2/Tracks2
Test2                INFO /Event/microDST/Test2/Tracks3
Test2                INFO /Event/Test2/Tracks4
Test2                INFO /Event/microDST
Test2                INFO /Event
Test2                INFO /Event/microDST
Test2                INFO /Event
Test2               DEBUG The object of type 'KeyedContainer<Gaudi::Examples::MyTrack,Containers::KeyedObjectManager<Containers::hashmap> >*' has been retrieved from TS at address 'microDST/Test2/Tracks1'
Test2               DEBUG The object of type 'KeyedContainer<Gaudi::Examples::MyTrack,Containers::KeyedObjectManager<Containers::hashmap> >*' could not be retrieved from TS at address 'microDST/Nowhere/To/Be/Found'
ApplicationMgr       INFO Application Manager Stopped successfully
Test1               DEBUG Finalize base class GaudiAlgorithm
Test1               DEBUG Tools to release :
Test1               DEBUG Services to release :
Test2               DEBUG Finalize base class GaudiAlgorithm
Test2               DEBUG Tools to release :
Test2               DEBUG Services to release :
EventLoopMgr         INFO Histograms converted successfully according to request.
ApplicationMgr       INFO Application Manager Finalized successfully
ApplicationMgr       INFO Application Manager Terminated successfully
